[
  {
    "title": "Design Patterns",
    "subtitle": "Elements of Reusable Object-Oriented Software",
    "isbn": "978-0-20163-361-0",
    "abstract": "Capturing a wealth of experience about the design of object-oriented software, four top-notch designers present a catalog of simple and succinct solutions to commonly occurring design problems. Previously undocumented, these 23 patterns allow designers to create more flexible, elegant, and ultimately reusable designs without having to rediscover the design solutions themselves.",
    "numPages": 395,
    "author": "Erich Gamma / Richard Helm / Ralph E. Johnson / John Vlissides",
    "publisher": {
      "name": "Addison-Wesley",
      "url": "http://www.addison-wesley.de/"
    }
  },
  {
    "title": "REST und HTTP",
    "subtitle": "Entwicklung und Integration nach dem Architekturstil des Web",
    "isbn": "978-3-86490-120-1",
    "abstract": "Das Buch bietet eine theoretisch fundierte, vor allem aber praxistaugliche Anleitung zum professionellen Einsatz von RESTful HTTP. Es beschreibt den Architekturstil REST (Representational State Transfer) und seine Umsetzung im Rahmen der Protokolle des World Wide Web (HTTP, URIs und andere).",
    "numPages": 330,
    "author": "Stefan Tilkov / Martin Eigenbrodt / Silvia Schreier / Oliver Wolf",
    "publisher": {
      "name": "dpunkt.verlag",
      "url": "http://dpunkt.de/"
    }
  }
]